Query the bee taxonomy and country checklist — BeeBDCQuery • BeeBDC
…
    # Example way to examine a report from the output list
  testQuery$checklistReport
#> # A tibble: 41 × 23
#>    validName     DiscoverLife_name rNaturalEarth_name shortName DiscoverLife_ISO
#>    <chr>         <chr>             <chr>              <chr>     <chr>           
#>  1 Lasioglossum… Australia         Australia          Australia AS              
#>  2 Nomada flavo… Austria           Austria            Austria   AU              
#>  3 Nomada flavo… Azerbaijan        Azerbaijan         Azerbaij… AJ              
#>  4 Nomada flavo… Belarus           Belarus            Belarus   BO              
#>  5 Nomada flavo… Belgium           Brussels           Belgium   BE              
#>  6 Nomada flavo… Bulgaria          Bulgaria           Bulgaria  BU              
#>  7 Nomada flavo… Croatia           Croatia            Croatia   HR              
#>  8 Nomada flavo… Czechia           Czech Republic     Czechia   EZ              
#>  9 Nomada flavo… Denmark           Denmark            Denmark   DA              
#> 10 Nomada flavo… Estonia           Estonia            Estonia   EN              
#> # ℹ 31 more rows
#> # ℹ 18 more variables: `Alpha-2` <chr>, `Alpha-3` <chr>, official <chr>,
#> #   Source <chr>, matchCertainty <chr>, canonical <chr>,
#> #   canonical_withFlags <chr>, family <chr>, subfamily <chr>, genus <chr>,
#> #   subgenus <lgl>, specificEpithet <chr>, species <chr>, infraspecies <chr>,
#> #   scientificNameAuthorship <chr>, taxon_rank <chr>,
#> #   infraspecificEpithet <chr>, Notes <chr>
…
