…
    # Example way to examine a report from the output list
  testQuery$checklistReport
#> # A tibble: 42 × 24
#>    validName            DiscoverLife_name rNaturalEarth_name shortName continent
#>    <chr>                <chr>             <chr>              <chr>     <chr>    
#>  1 Lasioglossum bicing… Australia         Australia          Australia Oceania  
#>  2 Nomada flavopicta (… Austria           Austria            Austria   Europe   
#>  3 Nomada flavopicta (… Azerbaijan        Azerbaijan         Azerbaij… Asia     
#>  4 Nomada flavopicta (… Belarus           Belarus            Belarus   Europe   
#>  5 Nomada flavopicta (… Belgium           Brussels           Belgium   NA       
#>  6 Nomada flavopicta (… Bulgaria          Bulgaria           Bulgaria  Europe   
#>  7 Nomada flavopicta (… Croatia           Croatia            Croatia   Europe   
#>  8 Nomada flavopicta (… Czechia           Czech Republic     Czechia   Europe   
#>  9 Nomada flavopicta (… Denmark           Denmark            Denmark   Europe   
#> 10 Nomada flavopicta (… Estonia           Estonia            Estonia   Europe   
#> # ℹ 32 more rows
#> # ℹ 19 more variables: DiscoverLife_ISO <chr>, `Alpha-2` <chr>,
#> #   iso_a3_eh <chr>, official <chr>, Source <chr>, matchCertainty <chr>,
#> #   canonical <chr>, canonical_withFlags <chr>, family <chr>, subfamily <chr>,
#> #   genus <chr>, subgenus <lgl>, specificEpithet <chr>, species <chr>,
#> #   infraspecies <chr>, scientificNameAuthorship <chr>, taxon_rank <chr>,
#> #   Notes <chr>, name <chr>
…
