…
  # To add new columns you can write
ColTypeR(newCharacterColumn = readr::col_character(), 
         newNumericColumn = readr::col_integer(), 
         newLogicalColumn = readr::col_logical()) 
#> Error in ColTypeR(newCharacterColumn = readr::col_character(), newNumericColumn = readr::col_integer(),     newLogicalColumn = readr::col_logical()): could not find function "ColTypeR"

# Try reading in one of the test datasets as an example:
beesFlagged %>% dplyr::as_tibble(col_types = BeeBDC::ColTypeR())
#> # A tibble: 100 × 124
#>    database_id scientificName family subfamily genus subgenus subspecies species
#>    <chr>       <chr>          <chr>  <chr>     <chr> <chr>    <lgl>      <chr>  
#>  1 Dorey_data… Pseudoanthidi… Megac… Megachil… Pseu… NA       NA         Pseudo…
#>  2 Dorey_data… Macrotera arc… Andre… Panurgin… Macr… NA       NA         Macrot…
#>  3 Dorey_data… Xanthesma fur… Colle… Euryglos… Xant… NA       NA         Xanthe…
#>  4 Dorey_data… Exomalopsis s… Apidae Apinae    Exom… NA       NA         Exomal…
#>  5 Dorey_data… Osmia bicolor… Megac… Megachil… Osmia NA       NA         Osmia …
#>  6 Paige_data… Augochlorella… Halic… Halictin… Augo… NA       NA         Augoch…
#>  7 Dorey_data… Megachile api… Megac… Megachil… Mega… NA       NA         Megach…
#>  8 Dorey_data… Trigona dalla… Apidae Apinae    Trig… NA       NA         Trigon…
#>  9 Dorey_data… Habropoda mis… Apidae Apinae    Habr… NA       NA         Habrop…
#> 10 Dorey_data… Lasioglossum … Halic… Halictin… Lasi… NA       NA         Lasiog…
#> # ℹ 90 more rows
#> # ℹ 116 more variables: specificEpithet <chr>, infraspecificEpithet <chr>,
#> #   acceptedNameUsage <lgl>, taxonRank <chr>, scientificNameAuthorship <chr>,
#> #   identificationQualifier <lgl>, higherClassification <chr>,
#> #   identificationReferences <lgl>, typeStatus <chr>,
#> #   previousIdentifications <chr>, verbatimIdentification <chr>,
#> #   identifiedBy <chr>, dateIdentified <chr>, decimalLatitude <dbl>, …
  # OR
beesRaw %>% dplyr::as_tibble(col_types = BeeBDC::ColTypeR())
#> # A tibble: 100 × 90
#>    database_id scientificName family subfamily genus subgenus subspecies species
#>    <chr>       <chr>          <chr>  <chr>     <chr> <chr>    <lgl>      <chr>  
#>  1 Dorey_data… Pseudoanthidi… Megac… Megachil… Pseu… NA       NA         Pseudo…
#>  2 Dorey_data… Macrotera arc… Andre… Panurgin… Macr… NA       NA         Macrot…
#>  3 Dorey_data… Xanthesma fur… Colle… Euryglos… Xant… NA       NA         Xanthe…
#>  4 Dorey_data… Exomalopsis s… Apidae Apinae    Exom… NA       NA         Exomal…
#>  5 Dorey_data… Osmia bicolor… Megac… Megachil… Osmia NA       NA         Osmia …
#>  6 Paige_data… Augochlorella… Halic… Halictin… Augo… NA       NA         Augoch…
#>  7 Dorey_data… Megachile api… Megac… Megachil… Mega… NA       NA         Megach…
#>  8 Dorey_data… Trigona dalla… Apidae Apinae    Trig… NA       NA         Trigon…
#>  9 Dorey_data… Habropoda mis… Apidae Apinae    Habr… NA       NA         Habrop…
#> 10 Dorey_data… Lasioglossum … Halic… Halictin… Lasi… NA       NA         Lasiog…
#> # ℹ 90 more rows
#> # ℹ 82 more variables: specificEpithet <chr>, infraspecificEpithet <chr>,
#> #   acceptedNameUsage <lgl>, taxonRank <chr>, scientificNameAuthorship <chr>,
#> #   identificationQualifier <lgl>, higherClassification <chr>,
#> #   identificationReferences <lgl>, typeStatus <chr>,
#> #   previousIdentifications <chr>, verbatimIdentification <chr>,
#> #   identifiedBy <chr>, dateIdentified <chr>, decimalLatitude <dbl>, …

  # OR, using the bee standard format from:
  
beesRaw %>% dplyr::as_tibble(col_types = BeeBDC::ColTypeR(standardFormat = "bee"))
#> # A tibble: 100 × 90
#>    database_id scientificName family subfamily genus subgenus subspecies species
#>    <chr>       <chr>          <chr>  <chr>     <chr> <chr>    <lgl>      <chr>  
#>  1 Dorey_data… Pseudoanthidi… Megac… Megachil… Pseu… NA       NA         Pseudo…
#>  2 Dorey_data… Macrotera arc… Andre… Panurgin… Macr… NA       NA         Macrot…
#>  3 Dorey_data… Xanthesma fur… Colle… Euryglos… Xant… NA       NA         Xanthe…
#>  4 Dorey_data… Exomalopsis s… Apidae Apinae    Exom… NA       NA         Exomal…
#>  5 Dorey_data… Osmia bicolor… Megac… Megachil… Osmia NA       NA         Osmia …
#>  6 Paige_data… Augochlorella… Halic… Halictin… Augo… NA       NA         Augoch…
#>  7 Dorey_data… Megachile api… Megac… Megachil… Mega… NA       NA         Megach…
#>  8 Dorey_data… Trigona dalla… Apidae Apinae    Trig… NA       NA         Trigon…
#>  9 Dorey_data… Habropoda mis… Apidae Apinae    Habr… NA       NA         Habrop…
#> 10 Dorey_data… Lasioglossum … Halic… Halictin… Lasi… NA       NA         Lasiog…
#> # ℹ 90 more rows
#> # ℹ 82 more variables: specificEpithet <chr>, infraspecificEpithet <chr>,
#> #   acceptedNameUsage <lgl>, taxonRank <chr>, scientificNameAuthorship <chr>,
#> #   identificationQualifier <lgl>, higherClassification <chr>,
#> #   identificationReferences <lgl>, typeStatus <chr>,
#> #   previousIdentifications <chr>, verbatimIdentification <chr>,
#> #   identifiedBy <chr>, dateIdentified <chr>, decimalLatitude <dbl>, …
…
