Basic workflow • BeeBDC
…
Similarly to the above you can filter for only countries of interest.
Keep in mind, that sometimes the country column may not hold
all of the records that fall in that country, if it, or the coordinates,
have been entered incorrectly.

  # Select your study area
studyArea <- c("Canada", "United states", "Mexico", "Guatemala")
# Filter the data to that area
countryData <- beesFlagged %>%
  dplyr::filter(country %in% studyArea)
  # View the data
countryData

## # A tibble: 49 × 124
##    database_id scientificName family subfamily genus subgenus subspecies species
##    <chr>       <chr>          <chr>  <chr>     <chr> <chr>    <lgl>      <chr>  
##  1 Dorey_data… Macrotera arc… Andre… Panurgin… Macr… NA       NA         Macrot…
##  2 Dorey_data… Exomalopsis s… Apidae Apinae    Exom… NA       NA         Exomal…
##  3 Paige_data… Augochlorella… Halic… Halictin… Augo… NA       NA         Augoch…
##  4 Dorey_data… Svastra duplo… Apidae Apinae    Svas… NA       NA         Svastr…
##  5 Dorey_data… Agapostemon f… Halic… Halictin… Agap… NA       NA         Agapos…
##  6 Dorey_data… Melissodes tr… Apidae Apinae    Meli… NA       NA         Meliss…
##  7 Dorey_data… Osmia pumila … Megac… Megachil… Osmia NA       NA         Osmia …
##  8 Dorey_data… Perdita bisho… Andre… Panurgin… Perd… NA       NA         Perdit…
##  9 Dorey_data… Melissodes lu… Apidae Apinae    Meli… NA       NA         Meliss…
## 10 Paige_data… Melecta thora… Apidae Apinae    Mele… NA       NA         Melect…
## # ℹ 39 more rows
## # ℹ 116 more variables: specificEpithet <chr>, infraspecificEpithet <chr>,
## #   acceptedNameUsage <lgl>, taxonRank <chr>, scientificNameAuthorship <chr>,
## #   identificationQualifier <lgl>, higherClassification <chr>,
## #   identificationReferences <lgl>, typeStatus <chr>,
## #   previousIdentifications <chr>, verbatimIdentification <chr>,
## #   identifiedBy <chr>, dateIdentified <chr>, decimalLatitude <dbl>, …
…
